<svg xmlns="http://www.w3.org/2000/svg" width="61" height="61.062" viewBox="0 0 61 61.062">
  <path d="M1774.09,812.02h-57.17a1.9,1.9,0,0,1-1.91-1.908v-22.89a1.9,1.9,0,0,1,1.91-1.907h30.49a1.911,1.911,0,0,1,1.91,1.907v20.983h3.81v-45.78a1.905,1.905,0,1,1,3.81,0v3.815h15.25v-3.815a1.905,1.905,0,1,1,3.81,0v47.687A1.9,1.9,0,0,1,1774.09,812.02Zm-28.59-22.89h-26.68v19.075h3.81v-5.723a1.91,1.91,0,0,1,3.82,0v5.723h11.43v-5.723a1.905,1.905,0,1,1,3.81,0v5.723h3.81V789.13Zm25.75,19.075-6.69-6.018-6.68,6.018h13.37Zm-13.37-17.168,6.68,6.018,6.69-6.018h-13.37Zm13.37-3.815-6.69-6.017-6.68,6.017h13.37Zm-14.31,16.7,4.78-4.3-4.78-4.3v8.6Zm0-20.982,4.78-4.3-4.78-4.3v8.6Zm0.94-12.885,6.68,6.018,6.69-6.018h-13.37Zm14.31,4.282-4.78,4.3,4.78,4.3v-8.6Zm0,20.983-4.78,4.3,4.78,4.3v-8.6Zm-34.31-2.375h3.81v3.815h-3.81v-3.815Zm-7.62,7.63h3.81v3.815h-3.81v-3.815Zm0-7.63h3.81v3.815h-3.81v-3.815Zm-7.63,0h3.82v3.815h-3.82v-3.815Zm24.78-11.445h-30.49a1.908,1.908,0,1,1,0-3.815h2.79l6.74-10.115v-8.96a1.9,1.9,0,0,1,1.9-1.907h1.91v-3.816a1.905,1.905,0,1,1,3.81,0V756.7h1.9a1.9,1.9,0,0,1,1.91,1.907v8.96l6.74,10.115h2.79A1.908,1.908,0,1,1,1747.41,781.5Zm-18.04-11.445-5.08,7.63h5.97v-7.63h-0.89Zm4.7-9.537h-3.81v5.722h3.81v-5.722Zm0.88,9.537h-0.88v7.63h5.97Z" transform="translate(-1715 -750.969)" fill="#54cfff"/>
</svg>
